{
	"id": "58c2ab81-a745-4525-a494-eebbe3bd74be",
	"name": "base",
	"values": [
		{
			"key": "base_url",
			"value": "localhost:8000",
			"enabled": true
		},
		{
			"key": "token",
			"value": "eyJ0eXAiOiJKV1QiLCJhbGciOiJIUzI1NiJ9.eyJpc3MiOiJodHRwOlwvXC9sb2NhbGhvc3Q6ODAwMFwvYXBpXC9sb2dpbiIsImlhdCI6MTU4NDU2MzA5MiwiZXhwIjoxNTg0NjQ5NDkyLCJuYmYiOjE1ODQ1NjMwOTIsImp0aSI6ImdWWlplOWdlTFNsUWl6alYiLCJzdWIiOjIsInBydiI6IjIzYmQ1Yzg5NDlmNjAwYWRiMzllNzAxYzQwMDg3MmRiN2E1OTc2ZjcifQ.kE_B6eMfL3NCqZhgmVAlftwGVRWHOeScf6w10Fs9o68",
			"enabled": true
		}
	],
	"_postman_variable_scope": "environment",
	"_postman_exported_at": "2020-03-19T10:58:13.109Z",
	"_postman_exported_using": "Postman/7.20.1"
}